II. Optical Pumping/data/state_8_1.csv

Memory Length,4000,
Trigger Level,1.200E-02,
Source,CH2,
Probe,1X,
Vertical Units,V,
Vertical Scale,2.000E-03,
Vertical Position,-4.000E-03,
Horizontal Units,S,
Horizontal Scale,2.500E-03,
Horizontal Position,0.000E+00,
Horizontal Mode,Main,
Sampling Period,1E-05,
Firmware,V1.23,
Time, 11:20:39,
Mode,Detail,
Waveform Data,
-2.000000E-002,0E+0,
-1.999000E-002,0E+0,
-1.998000E-002,9.6E-4,
-1.997000E-002,8E-4,
-1.996000E-002,5.6E-4,
-1.995000E-002,1.6E-4,
-1.994000E-002,0E+0,
-1.993000E-002,1.6E-4,
-1.992000E-002,5.6E-4,
-1.991000E-002,9.6E-4,
-1.990000E-002,1.2E-3,
-1.989000E-002,9.6E-4,
-1.988000E-002,9.6E-4,
-1.987000E-002,5.6E-4,
-1.986000E-002,4E-4,
-1.985000E-002,1.6E-4,
-1.984000E-002,1.6E-4,
-1.983000E-002,5.6E-4,
-1.982000E-002,8E-4,
-1.981000E-002,9.6E-4,
-1.980000E-002,9.6E-4,
-1.979000E-002,9.6E-4,
-1.978000E-002,5.6E-4,
-1.977000E-002,4E-4,
-1.976000E-002,1.6E-4,
-1.975000E-002,1.6E-4,
-1.974000E-002,4E-4,
-1.973000E-002,8E-4,
-1.972000E-002,8E-4,
-1.971000E-002,9.6E-4,
-1.970000E-002,8E-4,
-1.969000E-002,8E-4,
-1.968000E-002,4E-4,
-1.967000E-002,4E-4,
-1.966000E-002,4E-4,
-1.965000E-002,4E-4,
-1.964000E-002,8E-4,
-1.963000E-002,9.6E-4,
-1.962000E-002,9.6E-4,
-1.961000E-002,1.2E-3,
-1.960000E-002,8E-4,
-1.959000E-002,8E-4,
-1.958000E-002,4E-4,
-1.957000E-002,4E-4,
-1.956000E-002,4E-4,
-1.955000E-002,5.6E-4,
-1.954000E-002,8E-4,
-1.953000E-002,9.6E-4,
-1.952000E-002,9.6E-4,
-1.951000E-002,8E-4,
-1.950000E-002,8E-4,
-1.949000E-002,1.6E-4,
-1.948000E-002,1.6E-4,
-1.947000E-002,1.6E-4,
-1.946000E-002,5.6E-4,
-1.945000E-002,8E-4,
-1.944000E-002,9.6E-4,
-1.943000E-002,9.6E-4,
-1.942000E-002,9.6E-4,
-1.941000E-002,8E-4,
-1.940000E-002,4E-4,
-1.939000E-002,4E-4,
-1.938000E-002,1.6E-4,
-1.937000E-002,4E-4,
-1.936000E-002,5.6E-4,
-1.935000E-002,8E-4,
-1.934000E-002,9.6E-4,
-1.933000E-002,8E-4,
-1.932000E-002,8E-4,
-1.931000E-002,5.6E-4,
-1.930000E-002,4E-4,
-1.929000E-002,4E-4,
-1.928000E-002,4E-4,
-1.927000E-002,5.6E-4,
-1.926000E-002,8E-4,
-1.925000E-002,9.6E-4,
-1.924000E-002,1.2E-3,
-1.923000E-002,9.6E-4,
-1.922000E-002,8E-4,
-1.921000E-002,4E-4,
-1.920000E-002,4E-4,
-1.919000E-002,4E-4,
-1.918000E-002,5.6E-4,
-1.917000E-002,8E-4,
-1.916000E-002,8E-4,
-1.915000E-002,1.2E-3,
-1.914000E-002,9.6E-4,
-1.913000E-002,8E-4,
-1.912000E-002,8E-4,
-1.911000E-002,4E-4,
-1.910000E-002,4E-4,
-1.909000E-002,5.6E-4,
-1.908000E-002,8E-4,
-1.907000E-002,9.6E-4,
-1.906000E-002,1.2E-3,
-1.905000E-002,9.6E-4,
-1.904000E-002,1.2E-3,
-1.903000E-002,8E-4,
-1.902000E-002,5.6E-4,
-1.901000E-002,5.6E-4,
-1.900000E-002,1.6E-4,
-1.899000E-002,4E-4,
-1.898000E-002,8E-4,
-1.897000E-002,1.2E-3,
-1.896000E-002,1.2E-3,
-1.895000E-002,1.2E-3,
-1.894000E-002,8E-4,
-1.893000E-002,5.6E-4,
-1.892000E-002,5.6E-4,
-1.891000E-002,4E-4,
-1.890000E-002,5.6E-4,
-1.889000E-002,9.6E-4,
-1.888000E-002,1.2E-3,
-1.887000E-002,1.2E-3,
-1.886000E-002,9.6E-4,
-1.885000E-002,9.6E-4,
-1.884000E-002,5.6E-4,
-1.883000E-002,4E-4,
-1.882000E-002,4E-4,
-1.881000E-002,5.6E-4,
-1.880000E-002,8E-4,
-1.879000E-002,8E-4,
-1.878000E-002,9.6E-4,
-1.877000E-002,9.6E-4,
-1.876000E-002,8E-4,
-1.875000E-002,8E-4,
-1.874000E-002,4E-4,
-1.873000E-002,1.6E-4,
-1.872000E-002,4E-4,
-1.871000E-002,4E-4,
-1.870000E-002,8E-4,
-1.869000E-002,1.2E-3,
-1.868000E-002,1.2E-3,
-1.867000E-002,9.6E-4,
-1.866000E-002,9.6E-4,
-1.865000E-002,8E-4,
-1.864000E-002,4E-4,
-1.863000E-002,4E-4,
-1.862000E-002,5.6E-4,
-1.861000E-002,9.6E-4,
-1.860000E-002,1.2E-3,
-1.859000E-002,1.2E-3,
-1.858000E-002,9.6E-4,
-1.857000E-002,8E-4,
-1.856000E-002,8E-4,
-1.855000E-002,4E-4,
-1.854000E-002,4E-4,
-1.853000E-002,8E-4,
-1.852000E-002,8E-4,
-1.851000E-002,1.2E-3,
-1.850000E-002,1.36E-3,
-1.849000E-002,1.36E-3,
-1.848000E-002,9.6E-4,
-1.847000E-002,8E-4,
-1.846000E-002,4E-4,
-1.845000E-002,4E-4,
-1.844000E-002,4E-4,
-1.843000E-002,8E-4,
-1.842000E-002,1.2E-3,
-1.841000E-002,1.36E-3,
-1.840000E-002,1.36E-3,
-1.839000E-002,1.2E-3,
-1.838000E-002,8E-4,
-1.837000E-002,5.6E-4,
-1.836000E-002,4E-4,
-1.835000E-002,5.6E-4,
-1.834000E-002,8E-4,
-1.833000E-002,9.6E-4,
-1.832000E-002,1.2E-3,
-1.831000E-002,1.36E-3,
-1.830000E-002,1.2E-3,
-1.829000E-002,8E-4,
-1.828000E-002,5.6E-4,
-1.827000E-002,4E-4,
-1.826000E-002,1.6E-4,
-1.825000E-002,5.6E-4,
-1.824000E-002,8E-4,
-1.823000E-002,1.2E-3,
-1.822000E-002,1.36E-3,
-1.821000E-002,1.2E-3,
-1.820000E-002,9.6E-4,
-1.819000E-002,5.6E-4,
-1.818000E-002,5.6E-4,
-1.817000E-002,1.6E-4,
-1.816000E-002,4E-4,
-1.815000E-002,5.6E-4,
-1.814000E-002,9.6E-4,
-1.813000E-002,1.2E-3,
-1.812000E-002,1.2E-3,
-1.811000E-002,9.6E-4,
-1.810000E-002,8E-4,
-1.809000E-002,4E-4,
-1.808000E-002,4E-4,
-1.807000E-002,1.6E-4,
-1.806000E-002,5.6E-4,
-1.805000E-002,8E-4,
-1.804000E-002,9.6E-4,
-1.803000E-002,9.6E-4,
-1.802000E-002,8E-4,
-1.801000E-002,5.6E-4,
-1.800000E-002,4E-4,
-1.799000E-002,1.6E-4,
-1.798000E-002,1.6E-4,
-1.797000E-002,4E-4,
-1.796000E-002,8E-4,
-1.795000E-002,9.6E-4,
-1.794000E-002,9.6E-4,
-1.793000E-002,9.6E-4,
-1.792000E-002,5.6E-4,
-1.791000E-002,4E-4,
-1.790000E-002,1.6E-4,
-1.789000E-002,1.6E-4,
-1.788000E-002,4E-4,
-1.787000E-002,5.6E-4,
-1.786000E-002,5.6E-4,
-1.785000E-002,8E-4,
-1.784000E-002,8E-4,
-1.783000E-002,5.6E-4,
-1.782000E-002,4E-4,
-1.781000E-002,1.6E-4,
-1.780000E-002,1.6E-4,
-1.779000E-002,0E+0,
-1.778000E-002,4E-4,
-1.777000E-002,5.6E-4,
-1.776000E-002,8E-4,
-1.775000E-002,9.6E-4,
-1.774000E-002,8E-4,
-1.773000E-002,4E-4,
-1.772000E-002,4E-4,
-1.771000E-002,1.6E-4,
-1.770000E-002,1.6E-4,
-1.769000E-002,1.6E-4,
-1.768000E-002,5.6E-4,
-1.767000E-002,8E-4,
-1.766000E-002,8E-4,
-1.765000E-002,9.6E-4,
-1.764000E-002,4E-4,
-1.763000E-002,0E+0,
-1.762000E-002,0E+0,
-1.761000E-002,0E+0,
-1.760000E-002,1.6E-4,
-1.759000E-002,4E-4,
-1.758000E-002,5.6E-4,
-1.757000E-002,8E-4,
-1.756000E-002,9.6E-4,
-1.755000E-002,8E-4,
-1.754000E-002,4E-4,
-1.753000E-002,0E+0,
-1.752000E-002,0E+0,
-1.751000E-002,1.6E-4,
-1.750000E-002,1.6E-4,
-1.749000E-002,5.6E-4,
-1.748000E-002,8E-4,
-1.747000E-002,9.6E-4,
-1.746000E-002,8E-4,
-1.745000E-002,5.6E-4,
-1.744000E-002,1.6E-4,
-1.743000E-002,0E+0,
-1.742000E-002,0E+0,
-1.741000E-002,1.6E-4,
-1.740000E-002,5.6E-4,
-1.739000E-002,8E-4,
-1.738000E-002,8E-4,
-1.737000E-002,8E-4,
-1.736000E-002,5.6E-4,
-1.735000E-002,4E-4,
-1.734000E-002,0E+0,
-1.733000E-002,1.6E-4,
-1.732000E-002,1.6E-4,
-1.731000E-002,4E-4,
-1.730000E-002,8E-4,
-1.729000E-002,8E-4,
-1.728000E-002,9.6E-4,
-1.727000E-002,5.6E-4,
-1.726000E-002,4E-4,
-1.725000E-002,1.6E-4,
-1.724000E-002,1.6E-4,
-1.723000E-002,1.6E-4,
-1.722000E-002,1.6E-4,
-1.721000E-002,8E-4,
-1.720000E-002,1.2E-3,
-1.719000E-002,9.6E-4,
-1.718000E-002,8E-4,
-1.717000E-002,8E-4,
-1.716000E-002,4E-4,
-1.715000E-002,0E+0,
-1.714000E-002,0E+0,
-1.713000E-002,4E-4,
-1.712000E-002,5.6E-4,
-1.711000E-002,8E-4,
-1.710000E-002,9.6E-4,
-1.709000E-002,9.6E-4,
-1.708000E-002,5.6E-4,
-1.707000E-002,4E-4,
-1.706000E-002,0E+0,
-1.705000E-002,1.6E-4,
-1.704000E-002,1.6E-4,
-1.703000E-002,5.6E-4,
-1.702000E-002,9.6E-4,
-1.701000E-002,9.6E-4,
-1.700000E-002,9.6E-4,
-1.699000E-002,8E-4,
-1.698000E-002,4E-4,
-1.697000E-002,0E+0,
-1.696000E-002,0E+0,
-1.695000E-002,1.6E-4,
-1.694000E-002,4E-4,
-1.693000E-002,8E-4,
-1.692000E-002,1.2E-3,
-1.691000E-002,9.6E-4,
-1.690000E-002,8E-4,
-1.689000E-002,5.6E-4,
-1.688000E-002,4E-4,
-1.687000E-002,0E+0,
-1.686000E-002,1.6E-4,
-1.685000E-002,5.6E-4,
-1.684000E-002,8E-4,
-1.683000E-002,9.6E-4,
-1.682000E-002,9.6E-4,
-1.681000E-002,9.6E-4,
-1.680000E-002,5.6E-4,
-1.679000E-002,1.6E-4,
-1.678000E-002,0E+0,
-1.677000E-002,4E-4,
-1.676000E-002,4E-4,
-1.675000E-002,8E-4,
-1.674000E-002,9.6E-4,
-1.673000E-002,1.2E-3,
-1.672000E-002,1.2E-3,
-1.671000E-002,8E-4,
-1.670000E-002,5.6E-4,
-1.669000E-002,1.6E-4,
-1.668000E-002,1.6E-4,
-1.667000E-002,1.6E-4,
-1.666000E-002,8E-4,
-1.665000E-002,9.6E-4,
-1.664000E-002,1.2E-3,
-1.663000E-002,9.6E-4,
-1.662000E-002,8E-4,
-1.661000E-002,5.6E-4,
-1.660000E-002,4E-4,
-1.659000E-002,4E-4,
-1.658000E-002,1.6E-4,
-1.657000E-002,8E-4,
-1.656000E-002,1.2E-3,
-1.655000E-002,1.2E-3,
-1.654000E-002,9.6E-4,
-1.653000E-002,9.6E-4,
-1.652000E-002,8E-4,
-1.651000E-002,4E-4,
-1.650000E-002,1.6E-4,
-1.649000E-002,4E-4,
-1.648000E-002,5.6E-4,
-1.647000E-002,8E-4,
-1.646000E-002,9.6E-4,
-1.645000E-002,1.2E-3,
-1.644000E-002,9.6E-4,
-1.643000E-002,8E-4,
-1.642000E-002,8E-4,
-1.641000E-002,4E-4,
-1.640000E-002,4E-4,
-1.639000E-002,4E-4,
-1.638000E-002,8E-4,
-1.637000E-002,1.2E-3,
-1.636000E-002,1.36E-3,
-1.635000E-002,1.2E-3,
-1.634000E-002,8E-4,
-1.633000E-002,5.6E-4,
-1.632000E-002,4E-4,
-1.631000E-002,5.6E-4,
-1.630000E-002,8E-4,
-1.629000E-002,8E-4,
-1.628000E-002,9.6E-4,
-1.627000E-002,1.6E-3,
-1.626000E-002,1.6E-3,
-1.625000E-002,9.6E-4,
-1.624000E-002,8E-4,
-1.623000E-002,5.6E-4,
-1.622000E-002,4E-4,
-1.621000E-002,8E-4,
-1.620000E-002,8E-4,
-1.619000E-002,9.6E-4,
-1.618000E-002,9.6E-4,
-1.617000E-002,1.36E-3,
-1.616000E-002,1.2E-3,
-1.615000E-002,9.6E-4,
-1.614000E-002,5.6E-4,
-1.613000E-002,4E-4,
-1.612000E-002,5.6E-4,
-1.611000E-002,5.6E-4,
-1.610000E-002,9.6E-4,
-1.609000E-002,1.2E-3,
-1.608000E-002,1.2E-3,
-1.607000E-002,1.2E-3,
-1.606000E-002,9.6E-4,
-1.605000E-002,8E-4,
-1.604000E-002,5.6E-4,
-1.603000E-002,5.6E-4,
-1.602000E-002,8E-4,
-1.601000E-002,9.6E-4,
-1.600000E-002,9.6E-4,
-1.599000E-002,1.2E-3,
-1.598000E-002,1.2E-3,
-1.597000E-002,1.2E-3,
-1.596000E-002,8E-4,
-1.595000E-002,5.6E-4,
-1.594000E-002,5.6E-4,
-1.593000E-002,8E-4,
-1.592000E-002,8E-4,
-1.591000E-002,9.6E-4,
-1.590000E-002,1.2E-3,
-1.589000E-002,1.36E-3,
-1.588000E-002,1.2E-3,
-1.587000E-002,8E-4,
-1.586000E-002,8E-4,
-1.585000E-002,5.6E-4,
-1.584000E-002,8E-4,
-1.583000E-002,8E-4,
-1.582000E-002,1.2E-3,
-1.581000E-002,1.2E-3,
-1.580000E-002,1.36E-3,
-1.579000E-002,1.2E-3,
-1.578000E-002,1.2E-3,
-1.577000E-002,8E-4,
-1.576000E-002,4E-4,
-1.575000E-002,5.6E-4,
-1.574000E-002,5.6E-4,
-1.573000E-002,9.6E-4,
-1.572000E-002,1.2E-3,
-1.571000E-002,1.2E-3,
-1.570000E-002,1.36E-3,
-1.569000E-002,9.6E-4,
-1.568000E-002,8E-4,
-1.567000E-002,5.6E-4,
-1.566000E-002,5.6E-4,
-1.565000E-002,5.6E-4,
-1.564000E-002,8E-4,
-1.563000E-002,1.2E-3,
-1.562000E-002,1.2E-3,
-1.561000E-002,1.36E-3,
-1.560000E-002,1.36E-3,
-1.559000E-002,8E-4,
-1.558000E-002,8E-4,
-1.557000E-002,8E-4,
-1.556000E-002,5.6E-4,
-1.555000E-002,8E-4,
-1.554000E-002,1.2E-3,
-1.553000E-002,1.6E-3,
-1.552000E-002,1.6E-3,
-1.551000E-002,1.36E-3,
-1.550000E-002,9.6E-4,
-1.549000E-002,8E-4,
-1.548000E-002,5.6E-4,
-1.547000E-002,4E-4,
-1.546000E-002,8E-4,
-1.545000E-002,1.2E-3,
-1.544000E-002,1.36E-3,
-1.543000E-002,1.6E-3,
-1.542000E-002,1.36E-3,
-1.541000E-002,1.2E-3,
-1.540000E-002,8E-4,
-1.539000E-002,8E-4,
-1.538000E-002,5.6E-4,
-1.537000E-002,5.6E-4,
-1.536000E-002,9.6E-4,
-1.535000E-002,9.6E-4,
-1.534000E-002,1.6E-3,
-1.533000E-002,1.6E-3,
-1.532000E-002,1.2E-3,
-1.531000E-002,8E-4,
-1.530000E-002,5.6E-4,
-1.529000E-002,5.6E-4,
-1.528000E-002,8E-4,
-1.527000E-002,8E-4,
-1.526000E-002,1.2E-3,
-1.525000E-002,1.36E-3,
-1.524000E-002,1.2E-3,
-1.523000E-002,1.2E-3,
-1.522000E-002,9.6E-4,
-1.521000E-002,8E-4,
-1.520000E-002,8E-4,
-1.519000E-002,5.6E-4,
-1.518000E-002,9.6E-4,
-1.517000E-002,1.2E-3,
-1.516000E-002,1.36E-3,
-1.515000E-002,1.6E-3,
-1.514000E-002,1.2E-3,
-1.513000E-002,8E-4,
-1.512000E-002,8E-4,
-1.511000E-002,5.6E-4,
-1.510000E-002,4E-4,
-1.509000E-002,8E-4,
-1.508000E-002,1.2E-3,
-1.507000E-002,1.36E-3,
-1.506000E-002,1.6E-3,
-1.505000E-002,1.6E-3,
-1.504000E-002,1.2E-3,
-1.503000E-002,8E-4,
-1.502000E-002,5.6E-4,
-1.501000E-002,8E-4,
-1.500000E-002,8E-4,
-1.499000E-002,9.6E-4,
-1.498000E-002,1.2E-3,
-1.497000E-002,1.6E-3,
-1.496000E-002,1.6E-3,
-1.495000E-002,1.2E-3,
-1.494000E-002,8E-4,
-1.493000E-002,8E-4,
-1.492000E-002,8E-4,
-1.491000E-002,8E-4,
-1.490000E-002,9.6E-4,
-1.489000E-002,1.2E-3,
-1.488000E-002,1.6E-3,
-1.487000E-002,1.36E-3,
-1.486000E-002,1.2E-3,
-1.485000E-002,9.6E-4,
-1.484000E-002,8E-4,
-1.483000E-002,8E-4,
-1.482000E-002,8E-4,
-1.481000E-002,8E-4,
-1.480000E-002,9.6E-4,
-1.479000E-002,1.36E-3,
-1.478000E-002,1.36E-3,
-1.477000E-002,1.36E-3,
-1.476000E-002,9.6E-4,
-1.475000E-002,5.6E-4,
-1.474000E-002,5.6E-4,
-1.473000E-002,8E-4,
-1.472000E-002,9.6E-4,
-1.471000E-002,9.6E-4,
-1.470000E-002,1.36E-3,
-1.469000E-002,1.6E-3,
-1.468000E-002,1.36E-3,
-1.467000E-002,1.2E-3,
-1.466000E-002,8E-4,
-1.465000E-002,5.6E-4,
-1.464000E-002,8E-4,
-1.463000E-002,8E-4,
-1.462000E-002,9.6E-4,
-1.461000E-002,1.2E-3,
-1.460000E-002,1.6E-3,
-1.459000E-002,1.6E-3,
-1.458000E-002,1.2E-3,
-1.457000E-002,1.36E-3,
-1.456000E-002,9.6E-4,
-1.455000E-002,5.6E-4,
-1.454000E-002,8E-4,
-1.453000E-002,8E-4,
-1.452000E-002,1.2E-3,
-1.451000E-002,1.36E-3,
-1.450000E-002,1.36E-3,
-1.449000E-002,1.36E-3,
-1.448000E-002,9.6E-4,
-1.447000E-002,8E-4,
-1.446000E-002,5.6E-4,
-1.445000E-002,8E-4,
-1.444000E-002,9.6E-4,
-1.443000E-002,9.6E-4,
-1.442000E-002,1.36E-3,
-1.441000E-002,1.36E-3,
-1.440000E-002,1.2E-3,
-1.439000E-002,1.2E-3,
-1.438000E-002,9.6E-4,
-1.437000E-002,8E-4,
-1.436000E-002,8E-4,
-1.435000E-002,8E-4,
-1.434000E-002,9.6E-4,
-1.433000E-002,1.6E-3,
-1.432000E-002,1.36E-3,
-1.431000E-002,1.6E-3,
-1.430000E-002,1.2E-3,
-1.429000E-002,9.6E-4,
-1.428000E-002,8E-4,
-1.427000E-002,8E-4,
-1.426000E-002,8E-4,
-1.425000E-002,9.6E-4,
-1.424000E-002,9.6E-4,
-1.423000E-002,1.36E-3,
-1.422000E-002,1.36E-3,
-1.421000E-002,1.2E-3,
-1.420000E-002,9.6E-4,
-1.419000E-002,4E-4,
-1.418000E-002,5.6E-4,
-1.417000E-002,8E-4,
-1.416000E-002,8E-4,
-1.415000E-002,9.6E-4,
-1.414000E-002,1.2E-3,
-1.413000E-002,1.36E-3,
-1.412000E-002,1.36E-3,
-1.411000E-002,9.6E-4,
-1.410000E-002,8E-4,
-1.409000E-002,5.6E-4,
-1.408000E-002,5.6E-4,
-1.407000E-002,5.6E-4,
-1.406000E-002,8E-4,
-1.405000E-002,9.6E-4,
-1.404000E-002,1.2E-3,
-1.403000E-002,1.2E-3,
-1.402000E-002,8E-4,
-1.401000E-002,8E-4,
-1.400000E-002,5.6E-4,
-1.399000E-002,4E-4,
-1.398000E-002,5.6E-4,
-1.397000E-002,8E-4,
-1.396000E-002,9.6E-4,
-1.395000E-002,1.2E-3,
-1.394000E-002,1.2E-3,
-1.393000E-002,9.6E-4,
-1.392000E-002,8E-4,
-1.391000E-002,1.6E-4,
-1.390000E-002,1.6E-4,
-1.389000E-002,1.6E-4,
-1.388000E-002,5.6E-4,
-1.387000E-002,5.6E-4,
-1.386000E-002,9.6E-4,
-1.385000E-002,1.2E-3,
-1.384000E-002,8E-4,
-1.383000E-002,5.6E-4,
-1.382000E-002,4E-4,
-1.381000E-002,0E+0,
-1.380000E-002,1.6E-4,
-1.379000E-002,1.6E-4,
-1.378000E-002,4E-4,
-1.377000E-002,8E-4,
-1.376000E-002,1.2E-3,
-1.375000E-002,9.6E-4,
-1.374000E-002,8E-4,
-1.373000E-002,4E-4,
-1.372000E-002,0E+0,
-1.371000E-002,1.6E-4,
-1.370000E-002,1.6E-4,
-1.369000E-002,5.6E-4,
-1.368000E-002,8E-4,
-1.367000E-002,8E-4,
-1.366000E-002,8E-4,
-1.365000E-002,8E-4,
-1.364000E-002,4E-4,
-1.363000E-002,1.6E-4,
-1.362000E-002,0E+0,
-1.361000E-002,1.6E-4,
-1.360000E-002,5.6E-4,
-1.359000E-002,8E-4,
-1.358000E-002,9.6E-4,
-1.357000E-002,8E-4,
-1.356000E-002,9.6E-4,
-1.355000E-002,4E-4,
-1.354000E-002,1.6E-4,
-1.353000E-002,0E+0,
-1.352000E-002,4E-4,
-1.351000E-002,4E-4,
-1.350000E-002,8E-4,
-1.349000E-002,9.6E-4,
-1.348000E-002,9.6E-4,
-1.347000E-002,8E-4,
-1.346000E-002,5.6E-4,
-1.345000E-002,1.6E-4,
-1.344000E-002,1.6E-4,
-1.343000E-002,0E+0,
-1.342000E-002,1.6E-4,
-1.341000E-002,5.6E-4,
-1.340000E-002,8E-4,
-1.339000E-002,8E-4,
-1.338000E-002,8E-4,
-1.337000E-002,8E-4,
-1.336000E-002,4E-4,
-1.335000E-002,1.6E-4,
-1.334000E-002,1.6E-4,
-1.333000E-002,4E-4,
-1.332000E-002,8E-4,
-1.331000E-002,8E-4,
-1.330000E-002,9.6E-4,
-1.329000E-002,9.6E-4,
-1.328000E-002,8E-4,
-1.327000E-002,4E-4,
-1.326000E-002,1.6E-4,
-1.325000E-002,1.6E-4,
-1.324000E-002,4E-4,
-1.323000E-002,5.6E-4,
-1.322000E-002,9.6E-4,
-1.321000E-002,9.6E-4,
-1.320000E-002,9.6E-4,
-1.319000E-002,8E-4,
-1.318000E-002,4E-4,
-1.317000E-002,4E-4,
-1.316000E-002,1.6E-4,
-1.315000E-002,4E-4,
-1.314000E-002,5.6E-4,
-1.313000E-002,8E-4,
-1.312000E-002,9.6E-4,
-1.311000E-002,8E-4,
-1.310000E-002,8E-4,
-1.309000E-002,8E-4,
-1.308000E-002,5.6E-4,
-1.307000E-002,1.6E-4,
-1.306000E-002,1.6E-4,
-1.305000E-002,5.6E-4,
-1.304000E-002,5.6E-4,
-1.303000E-002,8E-4,
-1.302000E-002,9.6E-4,
-1.301000E-002,9.6E-4,
-1.300000E-002,8E-4,
-1.299000E-002,4E-4,
-1.298000E-002,1.6E-4,
-1.297000E-002,1.6E-4,
-1.296000E-002,4E-4,
-1.295000E-002,5.6E-4,
-1.294000E-002,8E-4,
-1.293000E-002,1.2E-3,
-1.292000E-002,9.6E-4,
-1.291000E-002,8E-4,
-1.290000E-002,5.6E-4,
-1.289000E-002,1.6E-4,
-1.288000E-002,1.6E-4,
-1.287000E-002,1.6E-4,
-1.286000E-002,4E-4,
-1.285000E-002,8E-4,
-1.284000E-002,9.6E-4,
-1.283000E-002,9.6E-4,
-1.282000E-002,8E-4,
-1.281000E-002,8E-4,
-1.280000E-002,4E-4,
-1.279000E-002,4E-4,
-1.278000E-002,1.6E-4,
-1.277000E-002,4E-4,
-1.276000E-002,8E-4,
-1.275000E-002,9.6E-4,
-1.274000E-002,9.6E-4,
-1.273000E-002,9.6E-4,
-1.272000E-002,9.6E-4,
-1.271000E-002,5.6E-4,
-1.270000E-002,4E-4,
-1.269000E-002,1.6E-4,
-1.268000E-002,4E-4,
-1.267000E-002,5.6E-4,
-1.266000E-002,9.6E-4,
-1.265000E-002,9.6E-4,
-1.264000E-002,9.6E-4,
-1.263000E-002,8E-4,
-1.262000E-002,8E-4,
-1.261000E-002,5.6E-4,
-1.260000E-002,1.6E-4,
-1.259000E-002,4E-4,
-1.258000E-002,4E-4,
-1.257000E-002,8E-4,
-1.256000E-002,1.2E-3,
-1.255000E-002,9.6E-4,
-1.254000E-002,9.6E-4,
-1.253000E-002,8E-4,
-1.252000E-002,5.6E-4,
-1.251000E-002,4E-4,
-1.250000E-002,1.6E-4,
-1.249000E-002,4E-4,
-1.248000E-002,8E-4,
-1.247000E-002,8E-4,
-1.246000E-002,9.6E-4,
-1.245000E-002,9.6E-4,
-1.244000E-002,9.6E-4,
-1.243000E-002,4E-4,
-1.242000E-002,0E+0,
-1.241000E-002,0E+0,
-1.240000E-002,4E-4,
-1.239000E-002,5.6E-4,
-1.238000E-002,8E-4,
-1.237000E-002,9.6E-4,
-1.236000E-002,1.2E-3,
-1.235000E-002,9.6E-4,
-1.234000E-002,5.6E-4,
-1.233000E-002,4E-4,
-1.232000E-002,1.6E-4,
-1.231000E-002,1.6E-4,
-1.230000E-002,5.6E-4,
-1.229000E-002,8E-4,
-1.228000E-002,1.2E-3,
-1.227000E-002,9.6E-4,
-1.226000E-002,9.6E-4,
-1.225000E-002,8E-4,
-1.224000E-002,4E-4,
-1.223000E-002,1.6E-4,
-1.222000E-002,1.6E-4,
-1.221000E-002,5.6E-4,
-1.220000E-002,8E-4,
-1.219000E-002,9.6E-4,
-1.218000E-002,9.6E-4,
-1.217000E-002,9.6E-4,
-1.216000E-002,8E-4,
-1.215000E-002,5.6E-4,
-1.214000E-002,1.6E-4,
-1.213000E-002,1.6E-4,
-1.212000E-002,1.6E-4,
-1.211000E-002,8E-4,
-1.210000E-002,9.6E-4,
-1.209000E-002,9.6E-4,
-1.208000E-002,1.2E-3,
-1.207000E-002,8E-4,
-1.206000E-002,4E-4,
-1.205000E-002,4E-4,
-1.204000E-002,4E-4,
-1.203000E-002,4E-4,
-1.202000E-002,8E-4,
-1.201000E-002,1.2E-3,
-1.200000E-002,1.2E-3,
-1.199000E-002,1.2E-3,
-1.198000E-002,8E-4,
-1.197000E-002,8E-4,
-1.196000E-002,4E-4,
-1.195000E-002,1.6E-4,
-1.194000E-002,1.6E-4,
-1.193000E-002,5.6E-4,
-1.192000E-002,9.6E-4,
-1.191000E-002,9.6E-4,
-1.190000E-002,9.6E-4,
-1.189000E-002,9.6E-4,
-1.188000E-002,8E-4,
-1.187000E-002,4E-4,
-1.186000E-002,4E-4,
-1.185000E-002,4E-4,
-1.184000E-002,4E-4,
-1.183000E-002,8E-4,
-1.182000E-002,1.2E-3,
-1.181000E-002,1.2E-3,
-1.180000E-002,9.6E-4,
-1.179000E-002,8E-4,
-1.178000E-002,4E-4,
-1.177000E-002,4E-4,
-1.176000E-002,1.6E-4,
-1.175000E-002,4E-4,
-1.174000E-002,8E-4,
-1.173000E-002,8E-4,
-1.172000E-002,1.2E-3,
-1.171000E-002,9.6E-4,
-1.170000E-002,8E-4,
-1.169000E-002,8E-4,
-1.168000E-002,4E-4,
-1.167000E-002,1.6E-4,
-1.166000E-002,1.6E-4,
-1.165000E-002,8E-4,
-1.164000E-002,9.6E-4,
-1.163000E-002,9.6E-4,
-1.162000E-002,1.2E-3,
-1.161000E-002,9.6E-4,
-1.160000E-002,8E-4,
-1.159000E-002,4E-4,
-1.158000E-002,4E-4,
-1.157000E-002,5.6E-4,
-1.156000E-002,8E-4,
-1.155000E-002,8E-4,
-1.154000E-002,1.2E-3,
-1.153000E-002,9.6E-4,
-1.152000E-002,9.6E-4,
-1.151000E-002,8E-4,
-1.150000E-002,4E-4,
-1.149000E-002,4E-4,
-1.148000E-002,1.6E-4,
-1.147000E-002,4E-4,
-1.146000E-002,8E-4,
-1.145000E-002,9.6E-4,
-1.144000E-002,1.2E-3,
-1.143000E-002,1.2E-3,
-1.142000E-002,8E-4,
-1.141000E-002,8E-4,
-1.140000E-002,5.6E-4,
-1.139000E-002,1.6E-4,
-1.138000E-002,8E-4,
-1.137000E-002,8E-4,
-1.136000E-002,8E-4,
-1.135000E-002,8E-4,
-1.134000E-002,9.6E-4,
-1.133000E-002,9.6E-4,
-1.132000E-002,5.6E-4,
-1.131000E-002,1.6E-4,
-1.130000E-002,1.6E-4,
-1.129000E-002,4E-4,
-1.128000E-002,4E-4,
-1.127000E-002,8E-4,
-1.126000E-002,9.6E-4,
-1.125000E-002,9.6E-4,
-1.124000E-002,8E-4,
-1.123000E-002,8E-4,
-1.122000E-002,5.6E-4,
-1.121000E-002,5.6E-4,
-1.120000E-002,8E-4,
-1.119000E-002,5.6E-4,
-1.118000E-002,8E-4,
-1.117000E-002,1.2E-3,
-1.116000E-002,1.2E-3,
-1.115000E-002,1.36E-3,
